{
    "0x00124b002a65bb42": {
        "voltage": 2900,
        "battery": 93,
        "linkquality": 108,
        "contact": false,
        "tamper": false,
        "battery_low": false
    },
    "0xbc026efffed4a657": {
        "color_mode": "color_temp",
        "linkquality": 116,
        "state": "ON",
        "brightness": 200,
        "update": {
            "state": "idle",
            "installed_version": 268572245,
            "latest_version": 268572245
        },
        "update_available": false,
        "color_temp": 370,
        "color": {
            "x": 0.4599,
            "y": 0.4106
        }
    }
}